Place,Sex,Name,CyrillicName,BodyweightKg,Squat1Kg,Squat2Kg,Squat3Kg,Best3SquatKg,Squat4Kg,Bench1Kg,Bench2Kg,Bench3Kg,Best3BenchKg,Bench4Kg,Deadlift1Kg,Deadlift2Kg,Deadlift3Kg,Best3DeadliftKg,Deadlift4Kg,TotalKg,WeightClassKg,Event,Equipment,Tested,Division,Age,BirthDate
1,F,Tatyana Yatsenko,Татьяна Яценко,53.5,85,-90,-90,85,,40,45,-47.5,45,,100,-105,-105,100,,230,56,SBD,Wraps,Yes,Amateur Juniors 20-23,20,1998-08-14
2,F,Tatyana Anpalova,Татьяна Анпалова,53.5,85,-90,-90,85,,40,-45,-45,40,,-90,90,92.5,92.5,,217.5,56,SBD,Wraps,Yes,Amateur Juniors 20-23,21,1997-07-27
1,F,Anastasiya Chernyavskaya,Анастасия Чернявская,55.7,95,97.5,-100,97.5,,70,72.5,75,75,,140,145,-150,145,,317.5,56,SBD,Wraps,Yes,Amateur Open,23,1995-12-13
1,F,Yuliya Gakh,Юлия Гах,66.3,105,-110,110,110,,45,-50,-50,45,,120,125,-132.5,125,,280,67.5,SBD,Wraps,Yes,Amateur Sub-Juniors 17-19,18,2000-07-31
1,F,Karina Polinovskaya,Карина Полиновская,65,115,122.5,127.5,127.5,,65,67.5,70,70,,110,115,120,120,,317.5,67.5,SBD,Wraps,Yes,Amateur Juniors 20-23,20,1998-11-24
1,F,Oksana Maruk,Оксана Марук,64.4,110,115,120,120,,67.5,70,72.5,72.5,,160,165,170,170,,362.5,67.5,SBD,Wraps,Yes,Amateur Open,46,1973-02-06
1,F,Ekaterina Yaroshenko,Екатерина Ярошенко,80.6,110,117.5,125,125,,47.5,50,-52.5,50,,135,-145,-145,135,,310,82.5,SBD,Wraps,Yes,Amateur Open,26,1993-04-15
1,M,Shafeek Saleem,,52.4,95,100,105,105,,60,-70,-70,60,,130,140,-150,140,,305,56,SBD,Wraps,Yes,Amateur Open,25,1994-03-09
1,M,Tair Faykov,Таир Файков,62,130,140,150,150,,90,100,105,105,,180,-190,190,190,,445,67.5,SBD,Wraps,Yes,Amateur Open,31,1988-05-22
1,M,Mustafa Seytnebiev,Мустафа Сейтнебиев,81.8,180,190,-200,190,,155,160,167.5,167.5,,220,230,-240,230,,587.5,82.5,SBD,Wraps,Yes,Amateur Open,22,1996-07-15
2,M,Ivan Kramarov,Иван Крамаров,78.4,160,-170,-170,160,,125,130,-135,130,,180,-190,-190,180,,470,82.5,SBD,Wraps,Yes,Amateur Open,26,1992-11-27
1,M,Nikolay Gordienko,Николай Гордиенко,92.9,150,160,-170,160,,110,115,120,120,,220,-230,,220,,500,100,SBD,Wraps,Yes,Amateur Open,27,1992-01-13
2,M,Vitaliy Dutchak,Виталий Дутчак,97.3,180,190,-195,190,,-95,95,-100,95,,190,205,-212.5,205,,490,100,SBD,Wraps,Yes,Amateur Open,33,1985-08-26
1,M,Nikolay Ivnenko,Николай Ивненко,103.5,210,240,250,250,,150,167.5,-170,167.5,,270,290,-300,290,,707.5,110,SBD,Wraps,Yes,Amateur Open,29,1989-06-21
1,F,Alisa Trandina,Алиса Трандина,64.9,100,110,115,115,,60,-70,-70,60,,110,120,-130,120,,295,67.5,SBD,Wraps,No,Pro Sub-Juniors 17-19,19,2000-04-25
1,F,Yuliya Antonova,Юлія Антонова,61.5,135,140,145,145,,75,80,85,85,,150,160,165,165,,395,67.5,SBD,Wraps,No,Pro Open,39,1980-02-01
2,F,Alisa Trandina,Алиса Трандина,64.9,100,110,115,115,,60,-70,-70,60,,110,120,-130,120,,295,67.5,SBD,Wraps,No,Pro Open,19,2000-04-25
1,M,Viktor Kiriyak,Виктор Кирияк,99.2,185,200,-210,200,,170,180,190,190,,210,230,250,250,,640,100,SBD,Wraps,No,Pro Juniors 20-23,22,1996-06-22
1,M,Teymuraz Chikovani,Теймураз Чиковани,99.6,195,210,230,230,,170,180,190,190,,220,240,262.5,262.5,,682.5,100,SBD,Wraps,No,Pro Open,27,1991-10-15
2,M,Dmitriy Kiselyov,Дмитрий Киселёв,95.1,-200,200,205,205,,160,170,-175,170,,-230,230,240,240,,615,100,SBD,Wraps,No,Pro Open,35,1984-05-07
1,M,Maksim Ilin,Максим Ильин,105.6,200,210,-220,210,,135,-140,,135,,255,-275,-275,255,,600,110,SBD,Wraps,No,Pro Open,31,1988-05-06
1,M,Anton Kirov,Антон Киров,156.3,305,330,,330,,170,-175,,170,,320,-345,345,345,,845,140+,SBD,Wraps,No,Pro Open,33,1986-01-01
1,F,Lyudmila Khromenkova,Людмила Хроменкова,55.5,90,100,105,105,,47.5,52.5,55,55,,127.5,137.5,142.5,142.5,,302.5,56,SBD,Wraps,Yes,Amateur Masters 50-59,57,1961-09-20
1,M,Daniil Ermakov,Даниил Ермаков,82.5,130,140,150,150,,70,75,77.5,77.5,,130,142.5,150,150,,377.5,82.5,SBD,Wraps,Yes,Amateur Teen 14-16,15,2003-12-01
1,M,Sergey Belyanskiy,Сергей Белянский,92.8,200,220,240,240,,170,180,-185,180,,250,270,-280,270,,690,100,SBD,Wraps,No,Pro Open,43,1976-03-10
2,M,Sergey Abalyaev,Сергей Абаляев,92,180,-195,205,205,,135,-140,140,140,,200,215,225,225,,570,100,SBD,Wraps,No,Pro Open,28,1990-06-15
1,M,Denis Bogatyrev,Денис Богатырев,112.5,250,-270,280,280,,160,170,180,180,,-240,240,-260,240,,700,125,SBD,Wraps,No,Pro Open,32,1987-03-23
1,F,Anna Pomozova,Анна Помозова,55.2,,,,,,52.5,-55,-55,52.5,,,,,,,52.5,56,B,Raw,Yes,Amateur Sub-Juniors 17-19,18,2000-07-05
1,F,Evgeniya Emtsova,Евгения Емцова,54,,,,,,50,-52.5,-52.5,50,,,,,,,50,56,B,Raw,Yes,Amateur Juniors 20-23,23,1995-09-09
1,F,Olga Golovataya,Ольга Головатая,52.5,,,,,,80,85,90,90,92.5,,,,,,90,56,B,Raw,Yes,Amateur Open,29,1989-08-09
DQ,F,Kseniya Tsalko,Ксения Цалко,59,,,,,,-62.5,-67.5,-67.5,,,,,,,,,60,B,Raw,Yes,Amateur Open,26,1993-01-22
1,F,Elina Rikman,Элина Рикман,62.7,,,,,,80,85,87.5,87.5,-90,,,,,,87.5,67.5,B,Raw,Yes,Amateur Open,19,1999-07-03
1,F,Anna Abramenko,Анна Абраменко,88.9,,,,,,75,77.5,-82.5,77.5,,,,,,,77.5,90,B,Raw,Yes,Amateur Open,25,1994-01-21
1,M,Valeriy Kondratev,Валерий Кондратьев,50,,,,,,60,-65,-70,60,,,,,,,60,52,B,Raw,Yes,Amateur Juniors 20-23,20,1998-11-17
1,M,Aleksandr Zankevich,Александр Занкевич,66.5,,,,,,110,-115,115,115,,,,,,,115,67.5,B,Raw,Yes,Amateur Open,24,1994-06-09
1,M,Dmitriy Koval,Дмитрий Коваль,88.1,,,,,,155,165,-175,165,,,,,,,165,90,B,Raw,Yes,Amateur Open,27,1992-02-04
2,M,Maksim Strunin,Максим Струнин,88.8,,,,,,165,-175,-175,165,,,,,,,165,90,B,Raw,Yes,Amateur Open,28,1990-09-13
3,M,Mikhail Tikhomirov,Михаил Тихомиров,87.8,,,,,,130,135,-140,135,,,,,,,135,90,B,Raw,Yes,Amateur Open,32,1986-07-23
4,M,Ruslan Mamedov,Руслан Мамедов,89,,,,,,-107.5,-107.5,107.5,107.5,,,,,,,107.5,90,B,Raw,Yes,Amateur Open,24,1995-01-26
1,M,Sergey Bagach,Сергей Багач,97.7,,,,,,150,155,162.5,162.5,,,,,,,162.5,100,B,Raw,Yes,Amateur Open,46,1973-05-01
2,M,Nikolay Mazur,Николай Мазур,99,,,,,,120,125,130,130,,,,,,,130,100,B,Raw,Yes,Amateur Open,27,1991-09-22
DQ,M,Aleksey Khodukin,Алексей Ходукин,97.3,,,,,,-135,-135,-135,,,,,,,,,100,B,Raw,Yes,Amateur Open,36,1983-03-10
1,M,Leonid Sankov,Леонид Саньков,94.5,,,,,,150,-155,-155,150,,,,,,,150,100,B,Raw,Yes,Amateur Masters 40-49,49,1970-03-21
1,M,Vitaliy Pinchuk,Виталий Пинчук,106,,,,,,220,-230,-230,220,,,,,,,220,110,B,Raw,Yes,Amateur Open,30,1989-05-08
2,M,Anton Goncharov,Антон Гончаров,103.6,,,,,,165,167.5,170,170,,,,,,,170,110,B,Raw,Yes,Amateur Open,24,1994-10-28
3,M,Oleg Shulga,Олег Шульга,106.7,,,,,,140,-147.5,-147.5,140,,,,,,,140,110,B,Raw,Yes,Amateur Open,50,1969-03-31
4,M,Aleksandr Klyuchenko,Александр Ключенко,108.3,,,,,,105,-107.5,107.5,107.5,,,,,,,107.5,110,B,Raw,Yes,Amateur Open,32,1986-07-08
1,M,Sergey Pedosyuk,Сергей Педосюк,108.3,,,,,,120,-125,125,125,,,,,,,125,110,B,Raw,Yes,Amateur Masters 50-59,52,1966-07-18
1,M,Aleksey Borisov,Алексей Борисов,116.8,,,,,,135,142.5,-150,142.5,,,,,,,142.5,125,B,Raw,Yes,Amateur Open,39,1980-05-08
1,M,Andrey Ivanov,Андрей Иванов,113.2,,,,,,130,-152.5,-152.5,130,,,,,,,130,125,B,Raw,Yes,Amateur Masters 50-59,52,1967-04-20
1,F,Elvira Fettaeva,Эльвира Феттаева,64.1,,,,,,50,57.5,-60,57.5,,,,,,,57.5,67.5,B,Raw,No,Pro Juniors 20-23,23,1995-08-29
1,F,Elnara Osmanova,Эльнара Османова,62,,,,,,47.5,50,-52.5,50,,,,,,,50,67.5,B,Raw,No,Pro Open,26,1993-03-13
1,F,Yuliya Kalinchenko,Юлія Калінченко,80,,,,,,95,100,107.5,107.5,,,,,,,107.5,82.5,B,Raw,No,Pro Masters 40-49,41,1977-11-20
1,M,Evgeniy Kalemi,Евгений Калеми,30.9,,,,,,35,37.5,40,40,,,,,,,40,52,B,Raw,No,Youth,7,2011-12-01
1,M,Vladislav Bogodist,Владислав Богодист,70.8,,,,,,-90,92.5,95,95,,,,,,,95,75,B,Raw,No,Pro Teen 14-16,15,2004-01-20
1,M,Kirill Lyutyy,Кирилл Лютый,80.8,,,,,,80,85,90,90,,,,,,,90,82.5,B,Raw,No,Pro Teen 14-16,14,2004-09-26
1,M,Vadim Sudak,Вадим Судак,79.8,,,,,,140,150,-155,150,,,,,,,150,82.5,B,Raw,No,Pro Sub-Juniors 17-19,19,1999-08-28
2,M,Kirill Korotich,Кирилл Коротич,78.5,,,,,,117.5,-130,130,130,,,,,,,130,82.5,B,Raw,No,Pro Juniors 20-23,21,1997-08-15
1,M,Roman Anikushin,Роман Аникушин,80.7,,,,,,195,-205,-205,195,,,,,,,195,82.5,B,Raw,No,Pro Open,32,1986-08-27
2,M,Kirill Korotich,Кирилл Коротич,78.5,,,,,,117.5,-130,130,130,,,,,,,130,82.5,B,Raw,No,Pro Open,21,1997-08-15
1,M,Aleksandr Kolesnikov,Александр Колесников,88.3,,,,,,-185,-190,190,190,,,,,,,190,90,B,Raw,No,Pro Open,33,1985-06-20
1,M,Nikolay Balyuk,Николай Балюк,97.4,,,,,,160,162.5,-165,162.5,,,,,,,162.5,100,B,Raw,No,Pro Juniors 20-23,21,1997-12-04
1,M,Denis Pavlenko,Денис Павленко,98.5,,,,,,220,-230,-230,220,,,,,,,220,100,B,Raw,No,Pro Open,26,1993-03-11
2,M,Viktor Kiriyak,Виктор Кирияк,99.2,,,,,,170,180,190,190,,,,,,,190,100,B,Raw,No,Pro Open,22,1996-06-22
1,M,Aleksey Khromenkov,Алексей Хроменков,99.4,,,,,,105,112.5,115,115,,,,,,,115,100,B,Raw,No,Pro Masters 60-69,61,1957-10-02
1,M,Ibragim Ilkhasan,Ибрагим Ильхасан,109.6,,,,,,255,-271,,255,,,,,,,255,110,B,Raw,No,Pro Open,29,1989-06-21
2,M,Dmitriy Anufriev,Дмитрий Ануфриев,105.7,,,,,,192.5,-200,202.5,202.5,,,,,,,202.5,110,B,Raw,No,Pro Open,34,1985-01-02
3,M,Andrey Andreev,Андрей Андреев,110,,,,,,180,190,-202.5,190,,,,,,,190,110,B,Raw,No,Pro Open,26,1992-07-17
1,M,Ruslan Ataev,Руслан Атаев,117.9,,,,,,145,155,162.5,162.5,,,,,,,162.5,125,B,Raw,No,Pro Juniors 20-23,23,1996-01-06
1,M,Denis Borodin,Денис Бородин,148.8,,,,,,205,215,-217.5,215,,,,,,,215,140+,B,Raw,No,Pro Open,26,1992-10-02
1,M,Igor Malashinskiy,Игорь Малашинский,81.9,,,,,,180,-202.5,-202.5,180,,,,,,,180,82.5,B,Multi-ply,Yes,Amateur Masters 40-49,46,1973-05-27
1,M,Dmitriy Tkachenko,Дмитрий Ткаченко,88.3,,,,,,-240,240,247.5,247.5,,,,,,,247.5,90,B,Multi-ply,Yes,Amateur Open,38,1981-04-09
1,M,Sergey Bagach,Сергей Багач,97.7,,,,,,190,205,-215,205,,,,,,,205,100,B,Multi-ply,Yes,Amateur Masters 40-49,46,1973-05-01
1,M,Alexander Chekachkov,Александр Чекачков,109,,,,,,-260,-260,260,260,,,,,,,260,110,B,Multi-ply,Yes,Amateur Open,48,1971-02-18
2,M,Oleg Shulga,Олег Шульга,106.7,,,,,,-190,200,-215,200,,,,,,,200,110,B,Multi-ply,Yes,Amateur Open,50,1969-03-31
1,M,Alexander Chekachkov,Александр Чекачков,109,,,,,,-260,-260,260,260,,,,,,,260,110,B,Multi-ply,Yes,Amateur Masters 40-49,48,1971-02-18
1,M,Yulia Medvedeva,Юлия Медведева,87.45,,,,,,240,250,-260,250,,,,,,,250,90,B,Multi-ply,No,Pro Open,39,1979-07-08
1,M,Dmitriy Tkachenko,Дмитрий Ткаченко,88.3,,,,,,-240,240,247.5,247.5,,,,,,,247.5,90,B,Multi-ply,No,Pro Open,38,1981-04-09
1,M,Artem Stasyuk,Артем Стасюк,98.7,,,,,,330,-355,-355,330,,,,,,,330,100,B,Multi-ply,No,Pro Open,26,1993-05-30
DQ,M,Vladimir Bykov,Владимир Быков,92.7,,,,,,-272.5,-272.5,-272.5,,,,,,,,,100,B,Multi-ply,No,Pro Open,33,1986-01-23
DQ,M,Lenur Kataev,Ленур Катаев,89.3,,,,,,-350,-350,-350,,,,,,,,,90,B,Multi-ply,No,Pro Open,24,1994-10-11
1,F,Sultanie Abibulaeva,Султание Абибулаева,62.2,,,,,,20,25,30,30,,,,,,,30,67.5,B,Raw,No,Pro Sub-Juniors 17-19,18,2000-06-27
1,M,Igor Sonin,Игорь Сонин,67.1,,,,,,92.5,-95,95,95,,,,,,,95,67.5,B,Raw,No,Pro Open,30,1989-01-23
1,M,Ruslan Mamutov,Руслан Мамутов,83.6,,,,,,-67.5,-67.5,67.5,67.5,,,,,,,67.5,90,B,Raw,No,Pro Open,25,1993-08-12
1,F,Anastasiya Filatova,Анастасия Филатова,50.6,,,,,,,,,,,90,-97.5,-97.5,90,,90,52,D,Raw,Yes,Amateur Sub-Juniors 17-19,19,1999-07-25
1,F,Anastasiya Chernyavskaya,Анастасия Чернявская,55.7,,,,,,,,,,,140,145,-150,145,,145,56,D,Raw,Yes,Amateur Open,23,1995-12-13
1,F,Oksana Maruk,Оксана Марук,64.4,,,,,,,,,,,160,165,170,170,,170,67.5,D,Raw,Yes,Amateur Open,46,1973-02-06
2,F,Olga Suvorova,Ольга Суворова,63.5,,,,,,,,,,,100,-105,105,105,,105,67.5,D,Raw,Yes,Amateur Open,30,1988-08-09
1,F,Kseniya Korchevskaya,Ксения Корчевская,73.3,,,,,,,,,,,115,125,127.5,127.5,,127.5,75,D,Raw,Yes,Amateur Open,29,1989-07-21
1,F,Ekaterina Yaroshenko,Екатерина Ярошенко,80.6,,,,,,,,,,,135,-145,-145,135,,135,82.5,D,Raw,Yes,Amateur Open,26,1993-04-15
1,M,Egor Poddubnyy,Егор Поддубный,59.5,,,,,,,,,,,140,150,160,160,,160,60,D,Raw,Yes,Amateur Teen 14-16,16,2003-06-02
1,M,Tair Faykov,Таир Файков,62,,,,,,,,,,,180,-190,190,190,,190,67.5,D,Raw,Yes,Amateur Open,31,1988-05-22
2,M,Andrey Chepurnov,Андрей Чепурнов,64.7,,,,,,,,,,,165,177.5,182.5,182.5,,182.5,67.5,D,Raw,Yes,Amateur Open,27,1991-07-11
1,M,Idris Khaybullaev,Идрис Хайбуллаев,71,,,,,,,,,,,220,-230,-237.5,220,,220,75,D,Raw,Yes,Amateur Open,25,1993-08-23
2,M,Stanislav Degurko,Станислав Дегурко,71.8,,,,,,,,,,,150,160,-170,160,,160,75,D,Raw,Yes,Amateur Open,31,1987-08-10
1,M,Sergey Zhuvaga,Сергей Жувага,88.1,,,,,,,,,,,250,262.5,-270,262.5,,262.5,90,D,Raw,Yes,Amateur Open,26,1992-06-17
DQ,M,Vasiliy Leonenko,Василий Леоненко,89.1,,,,,,,,,,,-235,-235,-235,,,,90,D,Raw,Yes,Amateur Masters 50-59,52,1967-04-06
1,M,Artem Pashkin,Артем Пашкин,96,,,,,,,,,,,230,-240,-240,230,,230,100,D,Raw,Yes,Amateur Open,27,1991-07-29
2,M,Nikolay Gordienko,Николай Гордиенко,92.9,,,,,,,,,,,220,-230,,220,,220,100,D,Raw,Yes,Amateur Open,27,1992-01-13
3,M,Vitaliy Dutchak,Виталий Дутчак,97.3,,,,,,,,,,,190,205,-212.5,205,,205,100,D,Raw,Yes,Amateur Open,33,1985-08-26
1,M,Nikolay Ivnenko,Николай Ивненко,103.5,,,,,,,,,,,270,290,-300,290,,290,110,D,Raw,Yes,Amateur Open,29,1989-06-21
2,M,Anton Goncharov,Антон Гончаров,103.6,,,,,,,,,,,275,-282.5,-282.5,275,,275,110,D,Raw,Yes,Amateur Open,24,1994-10-28
1,F,Yuliya Antonova,Юлія Антонова,61.5,,,,,,,,,,,150,160,165,165,,165,67.5,D,Raw,No,Pro Open,39,1980-02-01
1,F,Elena Pecherskaya,Елена Печерская,72.4,,,,,,,,,,,170,180,185,185,,185,75,D,Raw,No,Pro Open,28,1991-02-08
1,M,Valeriy Tyolkin,Валерий Тёлкин,43.8,,,,,,,,,,,90,95,-100,95,,95,52,D,Raw,No,Pro Teen 14-16,15,2004-03-12
1,M,Artur Filonov,Артур Филонов,88.7,,,,,,,,,,,235,245,-260,245,,245,90,D,Raw,No,Pro Juniors 20-23,22,1996-07-26
1,M,Sergey Zhuvaga,Сергей Жувага,88.1,,,,,,,,,,,250,262.5,,262.5,,262.5,90,D,Raw,No,Pro Open,26,1992-06-17
2,M,Maksim Belanov,Максим Беланов,86.3,,,,,,,,,,,220,230,235,235,,235,90,D,Raw,No,Pro Open,32,1986-06-08
1,M,Sergey Belyanskiy,Сергей Белянский,92.8,,,,,,,,,,,250,270,-280,270,,270,100,D,Raw,No,Pro Open,43,1976-03-10
2,M,Sergey Vlasov,Сергей Власов,96.1,,,,,,,,,,,230,250,255,255,,255,100,D,Raw,No,Pro Open,27,1991-09-12
3,M,Aleksandr Burakov,Александр Бураков,96.2,,,,,,,,,,,230,245,250,250,,250,100,D,Raw,No,Pro Open,25,1993-06-15
4,M,Andrey Mangushev,Андрей Мангушев,99.8,,,,,,,,,,,220,230,245,245,,245,100,D,Raw,No,Pro Open,25,1993-09-20
1,M,Maksim Ilin,Максим Ильин,105.6,,,,,,,,,,,255,-275,-275,255,,255,110,D,Raw,No,Pro Open,31,1988-05-06
1,M,Pyotr Litvinenko,Пётр Литвиненко,116.7,,,,,,,,,,,280,290,300,300,,300,125,D,Raw,No,Pro Open,28,1991-06-02
2,M,Sergey Natalchenko,Сергей Натальченко,110.8,,,,,,,,,,,275,295,-305,295,,295,125,D,Raw,No,Pro Open,35,1983-08-05
1,M,Anton Kirov,Антон Киров,156.3,,,,,,,,,,,320,-345,345,345,,345,140+,D,Raw,No,Pro Open,33,1986-01-01
