Name,WeightClassKg,Division,Sex,Best3SquatKg,Best3BenchKg,Best3DeadliftKg,TotalKg,Event,Equipment,Place
J. Patton,52,Open,M,88.45,56.7,108.86,254.01,SBD,Single-ply,1
R. Erdeljac,52,Open,M,90.72,56.7,106.59,254.01,SBD,Single-ply,2
Norbert Paterniti,56,Open,M,161.03,95.25,192.78,449.06,SBD,Single-ply,1
Gary Zeolla,56,Open,M,136.08,90.72,158.76,385.55,SBD,Single-ply,2
J. Zmitravich,56,Open,M,95.25,79.38,131.54,306.18,SBD,Single-ply,3
Cathy Kestel,56,Open,F,115.67,47.63,115.67,278.96,SBD,Single-ply,4
K. Neill,56,Open,M,70.31,47.63,99.79,217.72,SBD,Single-ply,5
Doug Heath,56,Open,M,,,,,SBD,Single-ply,DQ
Paul Griffith,60,Open,M,183.71,106.59,163.29,453.59,SBD,Single-ply,1
M. Gubak,60,Open,M,145.15,92.99,183.71,421.84,SBD,Single-ply,2
H. Boston,60,Open,M,124.74,95.25,170.1,390.09,SBD,Single-ply,3
M. Zmitravich,60,Open,M,102.06,92.99,190.51,385.55,SBD,Single-ply,4
J. Welch III,60,Open,M,122.47,79.38,151.95,353.8,SBD,Single-ply,5
T. Crastree,60,Open,M,129.27,77.11,145.15,351.53,SBD,Single-ply,6
J. Joestlein,60,Open,M,117.93,79.38,117.93,315.25,SBD,Single-ply,7
B. Christy,60,Open,M,90.72,79.38,120.2,290.3,SBD,Single-ply,8
J. Siegel,60,Open,M,83.91,65.77,104.33,254.01,SBD,Single-ply,9
S. Costa,60,Open,M,,,,,SBD,Single-ply,DQ
K. Lam,67.5,Open,M,222.26,133.81,247.21,603.28,SBD,Single-ply,1
D. Fleming,67.5,Open,M,208.65,145.15,204.12,557.92,SBD,Single-ply,2
T. Daughenburgh,67.5,Open,M,188.24,120.2,204.12,512.56,SBD,Single-ply,3
J. Young,67.5,Open,M,170.1,108.86,222.26,501.22,SBD,Single-ply,4
Doug Estep,67.5,Open,M,167.83,122.47,199.58,489.88,SBD,Single-ply,5
D. Dwyer,67.5,Open,M,179.17,122.47,170.1,471.74,SBD,Single-ply,6
R. Cain,67.5,Open,M,170.1,104.33,195.04,469.47,SBD,Single-ply,7
G. Mattson,67.5,Open,M,140.61,104.33,210.92,455.86,SBD,Single-ply,8
E. Lauckern,67.5,Open,M,142.88,86.18,172.37,401.43,SBD,Single-ply,13
E. Embler,67.5,Open,M,158.76,97.52,183.71,439.99,SBD,Single-ply,9
Jim Travis,67.5,Open,M,158.76,108.86,170.1,437.72,SBD,Single-ply,10
K. Singer,67.5,Open,M,181.44,86.18,158.76,426.38,SBD,Single-ply,11
R. Lane,67.5,Open,M,167.83,86.18,165.56,419.57,SBD,Single-ply,12
R. Linkenheimer,67.5,Open,M,127.01,95.25,172.37,394.63,SBD,Single-ply,14
J. Campbell,67.5,Open,M,136.08,90.72,165.56,392.36,SBD,Single-ply,15
A. Corbett,67.5,Open,M,97.52,86.18,174.63,358.34,SBD,Single-ply,16
S. Anderson,67.5,Open,M,90.72,70.31,113.4,274.42,SBD,Single-ply,17
D. Kinnsburgh,67.5,Open,M,92.99,68.04,99.79,260.82,SBD,Single-ply,18
Steve Snyder #2,75,Open,M,231.33,149.69,226.8,607.81,SBD,Single-ply,1
Gordon Wolfe,75,Open,M,219.99,117.93,238.14,576.06,SBD,Single-ply,2
Steve Uhas,75,Open,M,244.94,108.86,222.26,576.06,SBD,Single-ply,3
Robert Shaffer,75,Open,M,197.31,158.76,206.38,562.46,SBD,Single-ply,4
M. Taladay,75,Open,M,165.56,138.35,213.19,517.1,SBD,Single-ply,5
Dave Karam,75,Open,M,185.97,138.35,188.24,512.56,SBD,Single-ply,6
C. Bullock,75,Open,M,172.37,108.86,226.8,508.02,SBD,Single-ply,7
S. Taylor,75,Open,M,165.56,129.27,204.12,498.95,SBD,Single-ply,8
A. Briggs,75,Open,M,181.44,113.4,197.31,492.15,SBD,Single-ply,9
M. Lesney,75,Open,M,167.83,124.74,190.51,483.08,SBD,Single-ply,10
Scott Schisler,75,Open,M,149.69,142.88,185.97,478.54,SBD,Single-ply,11
C. Schake,75,Open,M,181.44,113.4,181.44,476.27,SBD,Single-ply,12
C. Walker,75,Open,M,149.69,117.93,208.65,476.27,SBD,Single-ply,13
Lance Ferguson,75,Open,M,161.03,88.45,204.12,453.59,SBD,Single-ply,14
Bugs Bayer,75,Open,M,147.42,97.52,192.78,437.72,SBD,Single-ply,15
G. Vass,75,Open,M,145.15,106.59,176.9,428.65,SBD,Single-ply,16
S. Toy,75,Open,M,138.35,111.13,174.63,424.11,SBD,Single-ply,17
R. Kurten,75,Open,M,,,,,SBD,Single-ply,DQ
T. Crabtree,75,Open,M,,,,,SBD,Single-ply,DQ
M. Brusch,82.5,Open,M,276.69,149.69,299.37,725.75,SBD,Single-ply,1
Bill Kyle,82.5,Open,M,249.48,167.83,256.28,673.59,SBD,Single-ply,2
T. Miller,82.5,Open,M,242.67,176.9,254.01,673.59,SBD,Single-ply,3
Miles Baird,82.5,Open,M,231.33,149.69,260.82,641.83,SBD,Single-ply,4
D. Smyth,82.5,Open,M,176.9,115.67,222.26,514.83,SBD,Single-ply,5
D. Fordyce,82.5,Open,M,161.03,108.86,201.85,471.74,SBD,Single-ply,6
C. Paterniti,82.5,Open,M,170.1,106.59,190.51,467.2,SBD,Single-ply,7
M. Kleis,82.5,Open,M,,,,,SBD,Single-ply,DQ
Bruce Graser,90,Open,M,249.48,147.42,283.5,680.39,SBD,Single-ply,1
R. McCoy,90,Open,M,240.4,158.76,242.67,641.83,SBD,Single-ply,2
Joe Valchine,90,Open,M,235.87,145.15,235.87,616.89,SBD,Single-ply,3
C. Zylinski,90,Open,M,217.72,147.42,249.48,614.62,SBD,Single-ply,4
C. Abbbate,90,Open,M,210.92,145.15,231.33,587.4,SBD,Single-ply,5
N. Noble,90,Open,M,222.26,140.61,217.72,580.6,SBD,Single-ply,6
M. Rakovan,90,Open,M,172.37,127.01,226.8,526.17,SBD,Single-ply,7
R. Borgay,90,Open,M,179.17,140.61,206.38,526.17,SBD,Single-ply,8
C. Hartman,90,Open,M,192.78,99.79,204.12,496.68,SBD,Single-ply,9
G. Collins,90,Open,M,161.03,115.67,170.1,446.79,SBD,Single-ply,10
J. Battalia,90,Open,M,161.03,106.59,172.37,439.99,SBD,Single-ply,11
J. Seaman,90,Open,M,172.37,,,,SBD,Single-ply,DQ
L. Luther,90,Open,M,,,,,SBD,Single-ply,DQ
Dave Wilson,100,Open,M,238.14,210.92,240.4,689.46,SBD,Single-ply,1
Ed Walker,100,Open,M,231.33,145.15,292.57,669.05,SBD,Single-ply,2
Russell Jenness,100,Open,M,240.4,179.17,249.48,669.05,SBD,Single-ply,3
Ernie Nagy,100,Open,M,219.99,170.1,235.87,625.96,SBD,Single-ply,4
M. Rosentrater,100,Open,M,190.51,158.76,242.67,591.94,SBD,Single-ply,5
D. McClaine,100,Open,M,195.04,136.08,213.19,544.31,SBD,Single-ply,6
M. Frank,100,Open,M,170.1,113.4,204.12,487.61,SBD,Single-ply,7
Charles Iorio,110,Open,M,303.91,197.31,272.16,773.38,SBD,Single-ply,1
George Sicheri,110,Open,M,294.84,195.04,267.62,757.5,SBD,Single-ply,2
B. Huey,110,Open,M,272.16,190.51,233.6,696.27,SBD,Single-ply,3
K. Nammi,110,Open,M,258.55,188.24,244.94,691.73,SBD,Single-ply,4
D. Schwinfurth,110,Open,M,249.48,183.71,254.01,687.19,SBD,Single-ply,5
Greg Dreschel,110,Open,M,272.16,154.22,242.67,669.05,SBD,Single-ply,6
D. Phillips,110,Open,M,226.8,136.08,231.33,594.21,SBD,Single-ply,7
G. Panzak,110,Open,M,183.71,154.22,229.06,566.99,SBD,Single-ply,8
G. Walker,125,Open,M,281.23,176.9,294.84,752.96,SBD,Single-ply,1
B. Ladick,125,Open,M,260.82,190.51,267.62,718.94,SBD,Single-ply,2
R. Graham,125,Open,M,272.16,136.08,260.82,669.05,SBD,Single-ply,3
R. Tarr,125,Open,M,249.48,149.69,258.55,657.71,SBD,Single-ply,4
T. Myers,125,Open,M,238.14,188.24,226.8,653.17,SBD,Single-ply,5
Steve Miller #1,125,Open,M,260.82,151.95,238.14,650.91,SBD,Single-ply,6
Coyle Lamison,125,Open,M,231.33,172.37,244.94,648.64,SBD,Single-ply,7
Al Siegel,125,Open,M,204.12,129.27,215.46,548.85,SBD,Single-ply,8
K. Gaydish,125,Open,M,,,,,SBD,Single-ply,DQ
Steve Lindway,125+,Open,M,303.91,163.29,274.42,741.62,SBD,Single-ply,1
Bill Bradford,125+,Open,M,274.42,181.44,269.89,725.75,SBD,Single-ply,2
L. Henry,125+,Open,M,283.5,158.76,242.67,684.93,SBD,Single-ply,3
Bob Coyer,125+,Open,M,206.38,140.61,249.48,596.47,SBD,Single-ply,4
