Place,Name,CyrillicName,Sex,BirthDate,Division,WeightClassKg,BodyweightKg,Squat1Kg,Squat2Kg,Squat3Kg,Best3SquatKg,Squat4Kg,Bench1Kg,Bench2Kg,Bench3Kg,Best3BenchKg,Bench4Kg,Deadlift1Kg,Deadlift2Kg,Deadlift3Kg,Best3DeadliftKg,Deadlift4Kg,TotalKg,Tested,Event,Equipment
1,Irina Chizhova,Ирина Чижова,F,1993-03-14,Open,52,52,115,120,125,125,,-60,60,65,65,,120,125,-130,125,,315,No,SBD,Raw
2,Ekaterina Malysheva,Екатерина Малышева,F,1987-02-09,Open,52,49.7,80,85,-90,85,,45,-47.5,-47.5,45,,-100,100,105,105,,235,No,SBD,Raw
3,Ekaterina Knyazeva,Екатерина Князева,F,1984-08-27,Open,52,51.1,72.5,75,,75,,45,-47.5,-47.5,45,,105,-110,-110,105,,225,No,SBD,Raw
4,Elena Titova,Елена Титова,F,1989-07-13,Open,52,51.7,60,65,70,70,,37.5,40,-42.5,40,,90,95,-100,95,,205,No,SBD,Raw
1,Tatyana Vasilevskaya,Татьяна Васильевская,F,1985-01-17,Open,60,59.7,-95,95,-100,95,,-50,50,-55,50,,107.5,112.5,-117.5,112.5,,257.5,No,SBD,Raw
2,Elena Mashkova,Елена Машкова,F,1983-01-20,Open,60,59.6,-77.5,77.5,82.5,82.5,,35,40,-42.5,40,,90,95,102.5,102.5,,225,No,SBD,Raw
1,Ekaterina Nazaruk,Екатерина Назарук,F,2002-07-12,Teen 14-16,67.5,64.8,75,80,85,85,,45,50,-52.5,50,,85,90,92.5,92.5,,227.5,No,SBD,Raw
2,Marina Kovalskaya,Марина Ковальская,F,2004-06-04,Teen 14-16,67.5,63.6,60,65,70,70,,40,42.5,,42.5,,100,105,-110,105,,217.5,No,SBD,Raw
1,Natalya Kuznetsova,Наталья Кузнецова,F,1992-08-19,Open,67.5,66,92.5,95,100,100,,60,-62.5,-65,60,,120,125,130,130,,290,No,SBD,Raw
2,Elena Rezvanova,Елена Резванова,F,1982-01-26,Open,67.5,65.8,75,82.5,90,90,,65,67.5,-70,67.5,,85,90,-95,90,,247.5,No,SBD,Raw
DQ,Yuliya Shishmakova,Юлия Шишмакова,F,1982-01-20,Open,67.5,66.7,-115,-115,-115,,,-65,-70,-70,,,,,,,,,No,SBD,Raw
1,Yuliya Shutova,Юлия Шутова,F,1986-10-13,Open,75,69.1,135,145,-155,145,,70,75,-77.5,75,,135,145,-150,145,,365,No,SBD,Raw
1,Aleksey Malyshev,Алексей Малышев,M,2004-06-30,Teen 14-16,52,51.2,100,105,110,110,,60,70,82.5,82.5,,120,130,140,140,,332.5,No,SBD,Raw
1,Evgeniy Bayborodin,Евгений Байбородин,M,1987-01-23,Open,67.5,65.8,140,150,155,155,,90,95,-97.5,95,,-195,-195,195,195,,445,No,SBD,Raw
2,Ivan Kazylskiy,Иван Казыльский,M,1987-08-31,Open,67.5,64.3,110,115,-120,115,,85,90,-95,90,,115,120,125,125,,330,No,SBD,Raw
DQ,Aldair Aliev,Альдаир Алиев,M,1992-12-06,Open,67.5,66.9,160,-170,-170,160,,-130,-130,-130,,,,,,,,,No,SBD,Raw
1,Evgeniy Karpov,Евгений Карпов,M,1979-10-26,Open,75,72.4,185,192.5,-197.5,192.5,,137.5,142.5,-145,142.5,,190,200,-207.5,200,,535,No,SBD,Raw
2,Sergey Arzumanov,Сергей Арзуманов,M,1990-09-28,Open,75,73.4,175,-182.5,-182.5,175,,125,-130,-130,125,,200,-210,-210,200,,500,No,SBD,Raw
3,Vladimir Borovkov,Владимир Боровков,M,1992-11-13,Open,75,73.4,110,120,130,130,,-105,105,110,110,,170,180,190,190,,430,No,SBD,Raw
4,Sergey Kryukov,Сергей Крюков,M,1980-07-30,Open,75,74.1,120,-130,130,130,,90,105,-107.5,105,,130,150,160,160,,395,No,SBD,Raw
1,Igor Pashkov,Игорь Пашков,M,1986-06-10,Open,82.5,81.4,185,192.5,197.5,197.5,,140,-145,145,145,,250,260,-265,260,,602.5,No,SBD,Raw
2,Roman Sekelchuk,Роман Секельчук,M,1988-06-08,Open,82.5,80.8,175,190,200,200,,137.5,142.5,-145,142.5,,190,210,225,225,,567.5,No,SBD,Raw
3,Yaroslav Bolshakov,Ярослав Большаков,M,1988-01-06,Open,82.5,81.5,105,107.5,117.5,117.5,,-70,72.5,-75,72.5,,140,155,165,165,,355,No,SBD,Raw
DQ,Konstantin Ershov,Константин Ершов,M,1989-10-14,Open,82.5,77.2,-130,-145,-145,,,,,,,,,,,,,,No,SBD,Raw
1,Nikolay Sytenskikh,Николай Сытенских,M,1974-05-27,Masters 40-49,82.5,79.8,110,-115,115,115,,110,117.5,-122.5,117.5,,140,-160,-170,140,,372.5,No,SBD,Raw
1,Evgeniy Aksenov,Евгений Аксенов,M,1997-04-24,Juniors 20-23,90,89.4,190,-200,200,200,,130,-140,-140,130,,-220,-220,220,220,,550,No,SBD,Raw
1,Yuliy Chernositov,Юлий Черноситов,M,1979-11-30,Open,90,89.3,202.5,210,-215,210,,152.5,157.5,162.5,162.5,,215,225,230,230,,602.5,No,SBD,Raw
2,Aleksey Kostanitsa,Алексей Костаница,M,1987-01-26,Open,90,88.4,205,-210,-210,205,,140,145,-150,145,,220,230,-240,230,,580,No,SBD,Raw
DQ,Aleksandr Deltsov,Александр Дельцов,M,1958-09-13,Open,90,88.5,-190,-190,-190,,,,,,,,,,,,,,No,SBD,Raw
1,Vadim Fedyukov,Вадим Федюков,M,1976-03-14,Masters 40-49,90,89.8,-170,170,180,180,,130,-135,135,135,,210,220,-225,220,,535,No,SBD,Raw
DQ,Aleksandr Deltsov,Александр Дельцов,M,1958-09-13,Masters 60-69,90,88.5,-190,-190,-190,,,,,,,,,,,,,,No,SBD,Raw
1,Aleksey Kosyanov,Алексей Косьянов,M,1998-02-10,Juniors 20-23,100,99.4,-200,200,-220,200,,162.5,-167.5,,162.5,,220,232.5,-240,232.5,,595,No,SBD,Raw
2,Zakir Omarov,Закир Омаров,M,1998-07-31,Juniors 20-23,100,99.3,-175,175,185,185,,-100,100,,100,,180,190,-200,190,,475,No,SBD,Raw
1,Artyom Klopov,Артём Клопов,M,1990-10-11,Open,100,98.7,-220,220,-240,220,,162.5,170,175,175,,220,-230,,220,,615,No,SBD,Raw
1,Pavel Bondarev,Павел Бондарев,M,1988-06-10,Open,110,107.3,250,270,280,280,,180,190,-195,190,,-260,272.5,-282.5,272.5,,742.5,No,SBD,Raw
1,Pavel Zhdanov,Павел Жданов,M,1980-12-03,Open,125,121.5,250,-260,-260,250,,180,185,-190,185,,280,300,-310,300,,735,No,SBD,Raw
1,Zhanis Zarinsh,Жанис Зариньш,M,1999-11-15,Sub-Juniors 17-19,140,135.7,-210,210,230,230,,155,-157.5,,155,,225,245,-252.5,245,,630,No,SBD,Raw
1,Valeriya Koroleva,Валерия Королева,F,2004-08-09,Teen 14-16,48,44.5,-40,40,-42.5,40,,30,-32.5,-32.5,30,,55,62.5,67.5,67.5,,137.5,No,SBD,Raw
1,Evgeniya Fedyukova,Евгения Федюкова,F,2003-05-03,Teen 14-16,75,69.7,70,75,80,80,,50,-55,-55,50,,105,110,-120,110,,240,No,SBD,Raw
1,Inga Abramova,Инга Абрамова,F,2002-09-30,Open,75,75,95,100,105,105,,55,-60,-60,55,,100,107.5,112.5,112.5,,272.5,No,SBD,Raw
1,Kirill Radostev,Кирилл Радостев,M,2004-06-07,Teen 14-16,52,45.2,50,-55,-55,50,,45,50,-52.5,50,,75,85,90,90,,190,No,SBD,Raw
1,Nikita Chernov,Никита Чернов,M,2002-04-29,Teen 14-16,56,54.9,80,85,87.5,87.5,,-57.5,-57.5,57.5,57.5,,95,100,-115,100,,245,No,SBD,Raw
1,Artur Larichev,Артур Ларичев,M,2003-08-13,Teen 14-16,60,58.7,80,85,-87.5,85,,57.5,60,65,65,,115,120,125,125,,275,No,SBD,Raw
1,Viktor Perepelitsyn,Виктор Перепелицын,M,1984-07-31,Open,75,73.6,200,220,225,225,,130,140,-145,140,,230,245,-260,245,,610,No,SBD,Raw
1,Artem Polyanskiy,Артем Полянский,M,1992-07-08,Open,90,89.1,245,-260,265,265,,170,-180,-180,170,,300,-310,-310,300,,735,No,SBD,Raw
2,Sergey Surkov,Сергей Сурков,M,1985-10-14,Open,90,89.9,225,235,245,245,,-185,-185,185,185,,280,290,-300,290,,720,No,SBD,Raw
3,Ivan Tsarev,Иван Царев,M,1985-01-29,Open,90,88.6,245,252.5,-260,252.5,,160,170,-177.5,170,,245,255,265,265,,687.5,No,SBD,Raw
4,Roman Malyshev,Роман Малышев,M,1978-08-20,Open,90,89.9,210,220,-230,220,,170,175,,175,,240,250,-255,250,,645,No,SBD,Raw
1,Vadim Fedyukov,Вадим Федюков,M,1976-03-14,Masters 40-49,90,89.8,-170,170,180,180,,130,-135,135,135,,210,220,-225,220,,535,No,SBD,Raw
1,Andrey Rezanov,Андрей Резанов,M,1967-04-22,Masters 50-59,90,89.1,165,175,-182.5,175,,135,140,-142.5,140,,190,202.5,210,210,,525,No,SBD,Raw
1,Dmitriy Makarov,Дмитрий Макаров,M,1984-05-25,Open,100,98.8,235,-245,250,250,,147.5,152.5,155,155,,277.5,292.5,302.5,302.5,,707.5,No,SBD,Raw
2,Stanislav Timofeev,Станислав Тимофеев,M,1980-08-15,Open,100,94.2,230,240,245,245,,160,167.5,170,170,,-260,270,-282.5,270,,685,No,SBD,Raw
3,Dmitriy Berezhnoy,Дмитрий Бережной,M,1985-06-21,Open,100,98.1,220,230,242.5,242.5,,150,-157.5,157.5,157.5,,260,272.5,,272.5,,672.5,No,SBD,Raw
4,Sergey Moiseev,Сергей Моисеев,M,1977-08-24,Open,100,99.9,220,230,-240,230,,147.5,155,-160,155,,260,-272.5,-272.5,260,,645,No,SBD,Raw
1,Sergey Moiseev,Сергей Моисеев,M,1977-08-24,Masters 40-49,100,99.9,220,230,-240,230,,147.5,155,-160,155,,260,-272.5,-272.5,260,,645,No,SBD,Raw
DQ,Sergey Makhrov,Сергей Махров,M,1957-02-17,Masters 60-69,100,96.3,-150,-150,-150,,,,,,,,,,,,,,No,SBD,Raw
1,Ekaterina Kovalskaya,Екатерина Ковальская,F,1981-06-21,Open,44,44,85,-90,90,90,,37.5,-40,-40,37.5,,-65,70,75,75,,202.5,No,SBD,Wraps
1,Dmitriy Golubev,Дмитрий Голубев,M,1992-02-27,Open,90,89.1,190,205,-210,205,,130,140,142.5,142.5,,190,205,215,215,,562.5,No,SBD,Wraps
1,Yuriy Marenkov,Юрий Маренков,M,1976-12-18,Open,100,97.1,-230,230,240,240,,150,155,162.5,162.5,,230,237.5,-242.5,237.5,,640,No,SBD,Wraps
1,Yuriy Kovalskiy,Юрий Ковальский,M,1978-01-27,Masters 40-49,100,99.5,150,-160,160,160,,105,-115,-115,105,,180,-190,195,195,,460,No,SBD,Wraps
1,Ilya Karmishin,Илья Кармишин,M,1984-10-01,Open,110,106,-270,270,280,280,,180,190,-200,190,,270,285,295,295,,765,No,SBD,Wraps
2,Andrey Petrov,Андрей Петров,M,1981-09-30,Open,110,107.9,240,260,270,270,,180,187.5,-192.5,187.5,,230,245,255,255,,712.5,No,SBD,Wraps
3,Anton Skovpen,Антон Сковпень,M,1995-07-08,Open,110,105.4,220,230,-240,230,,125,130,135,135,,230,240,,240,,605,No,SBD,Wraps
4,Maksim Grankin,Максим Гранкин,M,1990-06-18,Open,110,103.2,180,190,200,200,,120,130,135,135,,-180,185,195,195,,530,No,SBD,Wraps
1,Nikita Denisenko,Никита Денисенко,M,1996-01-12,Juniors 20-23,75,74.6,-130,130,140,140,,100,105,107.5,107.5,,170,180,185,185,,432.5,No,SBD,Wraps
1,Artem Bortnik,Артем Бортник,M,1995-07-17,Open,82.5,81,-255,-255,255,255,,160,170,-175,170,,260,-275,-280,260,,685,No,SBD,Wraps
DQ,Dmitriy Pavlov,Дмитрий Павлов,M,1996-06-11,Juniors 20-23,100,99,-280,-280,-280,,,,,,,,,,,,,,No,SBD,Wraps
1,Mikhail Burlakov,Михаил Бурлаков,M,1979-02-19,Open,100,98.2,260,280,-290,280,,160,170,-180,170,,-260,260,-290,260,,710,No,SBD,Wraps
2,Maksim Semchenko,Максим Семченко,M,1989-07-16,Open,100,97.5,245,-255,255,255,,157.5,167.5,-172.5,167.5,,-255,260,-275,260,,682.5,No,SBD,Wraps
DQ,Dmitriy Pavlov,Дмитрий Павлов,M,1996-06-11,Open,100,99,-280,-280,-280,,,170,175,180,180,,302.5,310,320,320,,,No,SBD,Wraps
1,Mikhail Burlakov,Михаил Бурлаков,M,1979-02-19,Masters 40-49,100,98.2,260,280,-290,280,,160,170,-180,170,,-260,260,-290,260,,710,No,SBD,Wraps
1,Ilya Grikin,Илья Грикин,M,1992-04-08,Open,125,121.8,-300,300,-310,300,,185,195,200,200,,-290,290,-310,290,,790,No,SBD,Wraps
DQ,Aleksandr Solovyov,Александр Соловьёв,M,1979-07-10,Open,125,119.2,-270,270,-285,270,,165,-172.5,-172.5,165,,-265,-265,,,,,No,SBD,Wraps
1,Aleksey Emelyanov,Алексей Емельянов,M,1983-02-25,Open,82.5,80.9,275,-295,-300,275,,187.5,195,200,200,,250,262.5,270,270,,745,No,SBD,Single-ply
1,Anastasiya Zhdanova,Анастасия Жданова,F,1980-12-11,Open,56,55.6,,,,,,47.5,-52.5,-52.5,47.5,,120,130,-137.5,130,,177.5,No,BD,Raw
1,Yuliya Shishmakova,Юлия Шишмакова,F,1982-01-20,Open,67.5,66.7,,,,,,-65,-65,65,65,,115,130,145,145,,210,No,BD,Raw
1,Aleksey Korneychuk,Алексей Корнейчук,M,1996-05-13,Juniors 20-23,67.5,66.2,,,,,,107.5,112.5,-117.5,112.5,,145,160,-170,160,,272.5,No,BD,Raw
1,Evgeniy Bayborodin,Евгений Байбородин,M,1987-01-23,Open,67.5,65.8,,,,,,90,95,-97.5,95,,-195,-195,195,195,,290,No,BD,Raw
DQ,Aldair Aliev,Альдаир Алиев,M,1992-12-06,Open,67.5,66.9,,,,,,-130,-130,-130,,,,,,,,,No,BD,Raw
1,Oleg Baranov,Олег Баранов,M,2003-05-23,Teen 14-16,75,74.9,,,,,,50,55,57.5,57.5,,80,100,105,105,,162.5,No,BD,Raw
1,Igor Pashkov,Игорь Пашков,M,1986-06-10,Open,82.5,81.4,,,,,,140,-145,145,145,,250,260,-265,260,,405,No,BD,Raw
1,Nikolay Sytenskikh,Николай Сытенских,M,1974-05-27,Masters 40-49,82.5,79.8,,,,,,110,117.5,-122.5,117.5,,140,-160,-170,140,,257.5,No,BD,Raw
1,Aleksandr Tayurskiy,Александр Таюрский,M,1979-09-03,Open,90,85.9,,,,,,110,115,-120,115,,130,150,160,160,,275,No,BD,Raw
1,Vadim Fedyukov,Вадим Федюков,M,1976-03-14,Masters 40-49,90,89.8,,,,,,130,-135,135,135,,210,220,-225,220,,355,No,BD,Raw
1,Aleksey Kosyanov,Алексей Косьянов,M,1998-02-10,Juniors 20-23,100,99.4,,,,,,162.5,-167.5,,162.5,,220,232.5,-240,232.5,,395,No,BD,Raw
1,Artyom Klopov,Артём Клопов,M,1990-10-11,Open,100,98.7,,,,,,162.5,170,175,175,,220,-230,,220,,395,No,BD,Raw
DQ,Andrey Privizentsev,Андрей Привизенцев,M,1988-08-08,Open,100,96.9,,,,,,-140,-140,-140,,,,,,,,,No,BD,Raw
1,Pavel Bondarev,Павел Бондарев,M,1988-06-10,Open,110,107.3,,,,,,180,190,-195,190,,-260,272.5,-282.5,272.5,,462.5,No,BD,Raw
2,Sergey Ptichkin,Сергей Птичкин,M,1976-06-08,Open,110,105.9,,,,,,145,150,-152.5,150,,230,245,-250,245,,395,No,BD,Raw
3,Valeriy Lobach,Валерий Лобач,M,1988-07-05,Open,110,105.5,,,,,,135,-140,140,140,,215,225,-235,225,,365,No,BD,Raw
1,Sergey Ptichkin,Сергей Птичкин,M,1976-06-08,Masters 40-49,110,105.9,,,,,,145,150,-152.5,150,,230,245,-250,245,,395,No,BD,Raw
1,Viktor Efipov,Виктор Ефипов,M,1956-01-19,Masters 60-69,110,105,,,,,,-135,135,-142.5,135,,165,170,175,175,,310,No,BD,Raw
1,Vladimir Chernyshov,Владимир Чернышов,M,1948-09-04,Open,125,120,,,,,,-127.5,-132.5,132.5,132.5,,225,235,-240,235,,367.5,No,BD,Raw
1,Vladimir Chernyshov,Владимир Чернышов,M,1948-09-04,Masters 70-79,125,120,,,,,,-127.5,-132.5,132.5,132.5,,225,235,-240,235,,367.5,No,BD,Raw
1,Roman Malyshev,Роман Малышев,M,1978-08-20,Open,90,89.9,,,,,,170,175,,175,,240,250,-255,250,,425,No,BD,Raw
1,Vadim Fedyukov,Вадим Федюков,M,1976-03-14,Masters 40-49,90,89.8,,,,,,130,-135,135,135,,210,220,-225,220,,355,No,BD,Raw
1,Dmitriy Pavlov,Дмитрий Павлов,M,1996-06-11,Open,100,99,,,,,,170,175,180,180,,302.5,310,320,320,,500,No,BD,Raw
1,Dmitriy Pavlov,Дмитрий Павлов,M,1996-06-11,Open,100,99,,,,,,170,175,180,180,,302.5,310,320,320,,500,No,BD,Raw
2,Andrey Savinov,Андрей Савинов,M,1980-03-26,Open,100,98.6,,,,,,160,165,-167.5,165,,225,-235,237.5,237.5,,402.5,No,BD,Raw
3,Ivan Baranov,Іван Баранов,M,1984-11-25,Open,100,99,,,,,,170,177.5,-182.5,177.5,,220,-240,-240,220,,397.5,No,BD,Raw
1,Sergey Makhrov,Сергей Махров,M,1957-02-17,Open,100,96.3,,,,,,100,110,,110,,150,170,190,190,,300,No,BD,Raw
1,Ekaterina Samashova,Екатерина Самашова,F,2000-09-10,Sub-Juniors 17-19,56,56,,,,,,47.5,-50,-50,47.5,,,,,,,47.5,No,B,Raw
1,Olga Korobkova,Ольга Коробкова,F,1982-07-15,Open,56,55.5,,,,,,62.5,65,-67.5,65,,,,,,,65,No,B,Raw
2,Mariya Lebedeva,Мария Лебедева,F,1992-03-05,Open,56,53.7,,,,,,47.5,-50,-55,47.5,,,,,,,47.5,No,B,Raw
1,Mariya Teykhman,Мария Тейхман,F,1979-07-21,Open,60,58.8,,,,,,45,47.5,-50,47.5,,,,,,,47.5,No,B,Raw
1,Mariya Koretskaya,Мария Корецкая,F,1981-10-11,Open,67.5,64.5,,,,,,85,90,92.5,92.5,,,,,,,92.5,No,B,Raw
2,Elena Rezvanova,Елена Резванова,F,1982-01-26,Open,67.5,65.8,,,,,,65,67.5,-70,67.5,,,,,,,67.5,No,B,Raw
1,Alla Pypa,Алла Пыпа,F,1968-09-26,Masters 50-59,67.5,65.1,,,,,,65,70,-75,70,,,,,,,70,No,B,Raw
1,Dmitriy Laukhin,Дмитрий Лаухин,M,2007-03-22,Youth,52,34.2,,,,,,22.5,25,27.5,27.5,,,,,,,27.5,No,B,Raw
1,Nikita Abramov,Никита Абрамов,M,2004-04-18,Teen 14-16,56,53.9,,,,,,60,-65,-70,60,,,,,,,60,No,B,Raw
1,Aleksey Korneychuk,Алексей Корнейчук,M,1996-05-13,Juniors 20-23,67.5,66.2,,,,,,107.5,112.5,-117.5,112.5,,,,,,,112.5,No,B,Raw
DQ,Mikhail Grebenshchikov,Михаил Гребенщиков,M,1987-12-08,Open,67.5,64.4,,,,,,-135,-135,,,,,,,,,,No,B,Raw
1,Dmitriy Pirog,Дмитрий Пирог,M,2001-12-02,Sub-Juniors 17-19,75,70.8,,,,,,100,107.5,-110,107.5,,,,,,,107.5,No,B,Raw
1,Vladislav Kryukov,Владислав Крюков,M,1997-10-15,Juniors 20-23,75,72.7,,,,,,110,117.5,122.5,122.5,,,,,,,122.5,No,B,Raw
1,Ilya Varshavskiy,Илья Варшавский,M,1991-11-03,Open,75,74.6,,,,,,170,180,182.5,182.5,,,,,,,182.5,No,B,Raw
2,Sergey Vorobev,Сергей Воробьев,M,1991-06-01,Open,75,72.8,,,,,,130,-135,135,135,,,,,,,135,No,B,Raw
3,Aleksandr Makoldin,Александр Маколдин,M,1990-05-28,Open,75,73.8,,,,,,105,117.5,-122.5,117.5,,,,,,,117.5,No,B,Raw
4,Denis Kashchenko,Денис Кащенко,M,1980-01-28,Open,75,69.5,,,,,,75,-82.5,82.5,82.5,,,,,,,82.5,No,B,Raw
DQ,Aleksandr Nikolaev,Александр Николаев,M,1988-04-06,Open,75,73,,,,,,-130,-130,-135,,,,,,,,,No,B,Raw
DQ,Artem Ryabov,Артем Рябов,M,1999-11-17,Sub-Juniors 17-19,82.5,78,,,,,,-120,-120,-120,,,,,,,,,No,B,Raw
1,Valeriy Smekalov,Валерий Смекалов,M,1984-04-15,Open,82.5,82.5,,,,,,145,155,-162.5,155,,,,,,,155,No,B,Raw
2,Igor Pashkov,Игорь Пашков,M,1986-06-10,Open,82.5,81.4,,,,,,140,-145,145,145,,,,,,,145,No,B,Raw
3,Rasul Payzulaev,Расул Пайзулаев,M,1988-09-07,Open,82.5,81.5,,,,,,-135,135,-140,135,,,,,,,135,No,B,Raw
DQ,Anton Pozdeev,Антон Поздеев,M,1987-10-17,Open,82.5,76.6,,,,,,-120,-125,-125,,,,,,,,,No,B,Raw
DQ,Andrey Dunaev,Андрей Дунаев,M,1973-02-12,Open,82.5,81.9,,,,,,-140,-140,-140,,,,,,,,,No,B,Raw
1,Maksim Tulikov,Максим Туликов,M,1977-06-26,Masters 40-49,82.5,82.3,,,,,,130,135,140,140,,,,,,,140,No,B,Raw
2,Aleksandr Sedashkin,Александр Седашкин,M,1978-08-04,Masters 40-49,82.5,80.4,,,,,,120,127.5,-130,127.5,,,,,,,127.5,No,B,Raw
DQ,Andrey Dunaev,Андрей Дунаев,M,1973-02-12,Masters 40-49,82.5,81.9,,,,,,-140,-140,-140,,,,,,,,,No,B,Raw
1,Fyodor Vaker,Фёдор Вакер,M,1995-10-15,Juniors 20-23,90,86.9,,,,,,170,175,-177.5,175,,,,,,,175,No,B,Raw
1,Aleksey Tretyakov,Алексей Третьяков,M,1981-03-09,Open,90,87.2,,,,,,162.5,165,-170,165,,,,,,,165,No,B,Raw
2,Aleksandr Panov,Александр Панов,M,1983-12-01,Open,90,88.1,,,,,,160,165,-170,165,,,,,,,165,No,B,Raw
3,Stanislav Litvinov,Станислав Литвинов,M,1989-04-21,Open,90,88.9,,,,,,-132.5,132.5,-140,132.5,,,,,,,132.5,No,B,Raw
DQ,Dmitriy Makarov,Дмитрий Макаров,M,1991-12-17,Open,90,88.8,,,,,,-132.5,-132.5,-132.5,,,,,,,,,No,B,Raw
DQ,Ilya Bondarenko,Илья Бондаренко,M,1981-04-07,Open,90,89.8,,,,,,-170,-170,-175,,,,,,,,,No,B,Raw
1,Roman Starostenko,Роман Старостенко,M,1973-07-06,Masters 40-49,90,89.8,,,,,,-160,160,-165,160,,,,,,,160,No,B,Raw
2,Mikhail Andreev,Михаил Андреев,M,1971-07-10,Masters 40-49,90,86.5,,,,,,145,155,-160,155,,,,,,,155,No,B,Raw
DQ,Oskar Latypov,Оскар Латыпов,M,1978-07-24,Masters 40-49,90,87.7,,,,,,-150,-150,-152.5,,,,,,,,,No,B,Raw
1,Aleksey Kosyanov,Алексей Косьянов,M,1998-02-10,Juniors 20-23,100,99.4,,,,,,162.5,-167.5,,162.5,,,,,,,162.5,No,B,Raw
1,Vadim Eliseev,Вадим Елисеев,M,1977-05-17,Open,100,98.5,,,,,,175,185,-190,185,,,,,,,185,No,B,Raw
2,Mikhail Saltanov,Михаил Салтанов,M,1981-12-09,Open,100,99.1,,,,,,180,185,-190,185,,,,,,,185,No,B,Raw
3,Artyom Klopov,Артём Клопов,M,1990-10-11,Open,100,98.7,,,,,,162.5,170,175,175,,,,,,,175,No,B,Raw
4,Sergey Shamov,Сергей Шамов,M,1973-08-21,Open,100,97.3,,,,,,160,165,170,170,,,,,,,170,No,B,Raw
DQ,Andrey Privizentsev,Андрей Привизенцев,M,1988-08-08,Open,100,96.9,,,,,,-140,-140,-140,,,,,,,,,No,B,Raw
1,Sergey Shamov,Сергей Шамов,M,1973-08-21,Masters 40-49,100,97.3,,,,,,160,165,170,170,,,,,,,170,No,B,Raw
1,Valeriy Vasilev,Валерий Васильев,M,1947-09-19,Masters 70-79,100,97.5,,,,,,130,135,137.5,137.5,,,,,,,137.5,No,B,Raw
1,Sergey Nelaev,Сергей Нелаев,M,1982-03-01,Open,110,102.5,,,,,,200,-205,-205,200,,,,,,,200,No,B,Raw
2,Pavel Bondarev,Павел Бондарев,M,1988-06-10,Open,110,107.3,,,,,,180,190,-195,190,,,,,,,190,No,B,Raw
3,Andrey Petrov,Андрей Петров,M,1981-09-30,Open,110,107.9,,,,,,180,187.5,-192.5,187.5,,,,,,,187.5,No,B,Raw
4,Valeriy Lobach,Валерий Лобач,M,1988-07-05,Open,110,105.5,,,,,,135,-140,140,140,,,,,,,140,No,B,Raw
1,Aleksandr Smirnov,Александр Смирнов,M,1976-12-15,Masters 40-49,110,103.6,,,,,,160,-167.5,-167.5,160,,,,,,,160,No,B,Raw
1,Vladimir Makarov,Владимир Макаров,M,1946-07-25,Masters 70-79,110,101,,,,,,100,105,-107.5,105,,,,,,,105,No,B,Raw
1,Daniil Kildyushkin,Даниил Кильдюшкин,M,1997-04-01,Juniors 20-23,125,121.9,,,,,,170,-177.5,-180,170,,,,,,,170,No,B,Raw
1,Aleksandr Komarov,Александр Комаров,M,1987-11-25,Open,125,119,,,,,,210,-215,-215,210,,,,,,,210,No,B,Raw
1,Anna Korolyova,Анна Королёва,F,1997-07-28,Juniors 20-23,44,37.85,,,,,,35,37.5,-40,37.5,,,,,,,37.5,No,B,Raw
1,Vladimir Osipov,Владимир Осипов,M,1985-10-27,Open,67.5,66.5,,,,,,-155,-155,155,155,,,,,,,155,No,B,Raw
1,Sergey Sychev,Сергей Сычев,M,1978-07-18,Open,75,74.7,,,,,,205,-210,210,210,213,,,,,,210,No,B,Raw
2,Aleksey Sayfutdinov,Алексей Сайфутдинов,M,1984-03-10,Open,75,74.8,,,,,,167.5,-175,-175,167.5,,,,,,,167.5,No,B,Raw
1,Sergey Sychev,Сергей Сычев,M,1978-07-18,Masters 40-49,75,74.7,,,,,,205,-210,210,210,213,,,,,,210,No,B,Raw
2,Oleg Dosyagov,Олег Досягов,M,1972-09-03,Masters 40-49,75,73.5,,,,,,115,-120,-120,115,,,,,,,115,No,B,Raw
1,Daniil Bogachev,Даниил Богачев,M,1997-07-08,Juniors 20-23,82.5,81,,,,,,130,132.5,-135,132.5,,,,,,,132.5,No,B,Raw
1,Artem Danelyants,Артём Данельянц,M,1993-08-01,Open,82.5,80.2,,,,,,185,192.5,197.5,197.5,,,,,,,197.5,No,B,Raw
2,Vyacheslav Vyatkin,Вячеслав Вяткин,M,1988-05-20,Open,82.5,81,,,,,,170,177.5,185,185,,,,,,,185,No,B,Raw
3,Ratmir Zubairov,Ратмир Зубаиров,M,1987-10-16,Open,82.5,80,,,,,,167.5,-175,-175,167.5,,,,,,,167.5,No,B,Raw
4,Ilya Sushiy,Илья Суший,M,1984-08-20,Open,82.5,81.7,,,,,,150,157.5,165,165,,,,,,,165,No,B,Raw
1,Oleg Plyusnin,Олег Плюснин,M,1963-03-22,Masters 50-59,82.5,80,,,,,,120,125,132.5,132.5,,,,,,,132.5,No,B,Raw
1,Sergey Surkov,Сергей Сурков,M,1985-10-14,Open,90,89.9,,,,,,-185,-185,185,185,,,,,,,185,No,B,Raw
2,Vladimir Talyanov,Владимир Тальянов,M,1987-07-06,Open,90,88.4,,,,,,-155,160,-167.5,160,,,,,,,160,No,B,Raw
DQ,Aleksey Pokotilov,Алексей Покотилов,M,1987-03-04,Open,90,88.2,,,,,,-165,-165,-165,,,,,,,,,No,B,Raw
1,Roman Malyshev,Роман Малышев,M,1978-08-20,Masters 40-49,90,89.9,,,,,,170,175,,175,,,,,,,175,No,B,Raw
1,Kirill Yurshin,Кирилл Юршин,M,1988-07-28,Open,100,100,,,,,,205,215,-222.5,215,,,,,,,215,No,B,Raw
2,Igor Tarasov,Ігор Тарасов,M,1992-09-30,Open,100,98.7,,,,,,190,-195,-195,190,,,,,,,190,No,B,Raw
3,Dmitriy Fomichev,Дмитрий Фомичев,M,1986-12-15,Open,100,98.6,,,,,,175,185,-195,185,,,,,,,185,No,B,Raw
4,Nikolay Ivanov,Николай Иванов,M,1989-07-01,Open,100,93.7,,,,,,170,-175,-175,170,,,,,,,170,No,B,Raw
5,Anton Prokopenko,Антон Прокопенко,M,1983-02-18,Open,100,95.5,,,,,,165,-170,-172.5,165,,,,,,,165,No,B,Raw
DQ,Timur Radzhabov,Тимур Раджабов,M,1981-04-11,Open,100,98.2,,,,,,-150,-155,-155,,,,,,,,,No,B,Raw
DQ,Vitaliy Vasilev,Виталий Васильев,M,1976-01-25,Masters 40-49,100,99,,,,,,-140,-150,-150,,,,,,,,,No,B,Raw
1,Aleksey Solovev,Алексей Соловьев,M,1990-07-01,Open,110,110,,,,,,260,-270,270,270,,,,,,,270,No,B,Raw
2,Artem Markov,Артем Марков,M,1986-08-03,Open,110,108,,,,,,-215,215,-222.5,215,,,,,,,215,No,B,Raw
3,Akhmed Musaev,Ахмед Мусаев,M,1980-10-10,Open,110,103,,,,,,200,210,-220,210,,,,,,,210,No,B,Raw
4,Temirzhon Berdiev,Темиржон Бердиев,M,1988-11-27,Open,110,107.3,,,,,,-200,200,-210,200,,,,,,,200,No,B,Raw
5,Mikhail Khomutov,Михаил Хомутов,M,1981-04-28,Open,110,106.4,,,,,,185,190,192.5,192.5,,,,,,,192.5,No,B,Raw
6,Aleksandr Pozdnyakov,Александр Поздняков,M,1988-09-29,Open,110,109,,,,,,-180,180,-192.5,180,,,,,,,180,No,B,Raw
7,Roman Aleshin,Роман Алешин,M,1982-06-18,Open,110,104.7,,,,,,162.5,165,-170,165,,,,,,,165,No,B,Raw
1,Evgeniy Karasev,Евгений Карасев,M,1975-04-25,Masters 40-49,110,108.9,,,,,,160,-167.5,-167.5,160,,,,,,,160,No,B,Raw
1,Dmitriy Zhemarkin,Дмитрий Жемаркин,M,1997-01-29,Juniors 20-23,125,120.4,,,,,,200,,,200,,,,,,,200,No,B,Raw
1,Maksim Lisyutin,Максим Лисютин,M,1985-04-24,Open,125,116.6,,,,,,240,250,257.5,257.5,,,,,,,257.5,No,B,Raw
2,Sergey Lir,Сергей Лир,M,1991-09-25,Open,125,117.5,,,,,,250,255,-257.5,255,,,,,,,255,No,B,Raw
3,Aleksandr Fotin,Александр Фотин,M,1991-03-09,Open,125,123.9,,,,,,245,255,-257.5,255,,,,,,,255,No,B,Raw
4,Aleksey Chilikin,Алексей Чиликин,M,1978-01-21,Open,125,125,,,,,,215,225,232.5,232.5,,,,,,,232.5,No,B,Raw
5,Aleksey Mikhaylov,Алексей Михайлов,M,1986-07-23,Open,125,115.9,,,,,,215,222.5,227.5,227.5,,,,,,,227.5,No,B,Raw
6,Artur Sapuntsov,Артур Сапунцов,M,1983-01-09,Open,125,121.2,,,,,,215,220,-225,220,,,,,,,220,No,B,Raw
7,Pavel Gundorov,Павел Гундоров,M,1977-08-02,Open,125,118.3,,,,,,-202.5,202.5,-205,202.5,,,,,,,202.5,No,B,Raw
8,Dmitriy Tarasov,Дмитрий Тарасов,M,1986-03-22,Open,125,112,,,,,,200,,,200,,,,,,,200,No,B,Raw
9,Evgeniy Avdulov,Евгений Авдулов,M,1983-11-04,Open,125,117.5,,,,,,200,-210,-210,200,,,,,,,200,No,B,Raw
10,Dmitriy Obrazumov,Дмитрий Образумов,M,1980-03-09,Open,125,114.6,,,,,,180,190,-192.5,190,,,,,,,190,No,B,Raw
11,Oleg Malkov,Олег Мальков,M,1980-02-27,Open,125,121.8,,,,,,180,-190,-190,180,,,,,,,180,No,B,Raw
DQ,Ilya Grechina,Илья Гречина,M,1991-05-14,Open,125,118.2,,,,,,-200,-200,-205,,,,,,,,,No,B,Raw
1,Valentin Cherepnin,Валентин Черепнин,M,1976-12-08,Masters 40-49,125,118.5,,,,,,200,210,215,215,,,,,,,215,No,B,Raw
1,Aleksandr Sidorov,Александр Сидоров,M,1980-07-20,Open,140,135.8,,,,,,230,237.5,,237.5,,,,,,,237.5,No,B,Raw
2,Ivan Palilov,Иван Палилов,M,1976-11-14,Open,140,131.2,,,,,,215,-225,225,225,,,,,,,225,No,B,Raw
1,Arif Makhmudov,Ариф Махмудов,M,1962-07-31,Masters 50-59,140,136.2,,,,,,200,210,-215,210,,,,,,,210,No,B,Raw
1,Vladimir Borovkov,Владимир Боровков,M,1992-11-13,Open,75,73.4,,,,,,130,-135,135,135,,,,,,,135,No,B,Single-ply
DQ,Elena Kotina,Елена Котина,F,1977-03-25,Open,67.5,66.35,,,,,,-100,-100,-107.5,,,,,,,,,No,B,Multi-ply
DQ,Elena Kotina,Елена Котина,F,1977-03-25,Masters 40-49,67.5,66.35,,,,,,-100,-100,-107.5,,,,,,,,,No,B,Multi-ply
1,Ilya Varshavskiy,Илья Варшавский,M,1991-11-03,Open,75,74.6,,,,,,265,275,-285,275,,,,,,,275,No,B,Multi-ply
1,Aleksandr Marchuk,Александр Марчук,M,1982-01-29,Open,110,108.2,,,,,,280,-290,-300,280,,,,,,,280,No,B,Multi-ply
1,Igor Zvezdin,Игорь Звездин,M,1958-08-02,Masters 60-69,110,108.5,,,,,,160,-170,175,175,,,,,,,175,No,B,Multi-ply
1,Evgeniy Grebnev,Евгений Гребнев,M,1980-05-07,Open,125,111,,,,,,200,210,,210,,,,,,,210,No,B,Multi-ply
1,Aleksandr Verbitskiy,Александр Вербицкий,M,1996-02-28,Juniors 20-23,67.5,63.1,,,,,,140,-150,-160,140,,,,,,,140,No,B,Multi-ply
1,Danil Kolchev,Данил Колчев,M,1990-11-22,Open,90,87.95,,,,,,280,290,,290,,,,,,,290,No,B,Multi-ply
1,Timur Radzhabov,Тимур Раджабов,M,1981-04-11,Open,100,98.2,,,,,,220,-232.5,-232.5,220,,,,,,,220,No,B,Multi-ply
1,Sergey Rychagov,Сергей Рычагов,M,1980-05-20,Open,110,109.4,,,,,,270,280,-290,280,,,,,,,280,No,B,Multi-ply
2,Evgeniy Gornostaev,Евгений Горностаев,M,1979-09-29,Open,110,109.8,,,,,,265,275,-282.5,275,,,,,,,275,No,B,Multi-ply
DQ,Sergey Averkin,Сергей Аверкин,M,1976-08-04,Masters 40-49,110,108.6,,,,,,-250,-250,-250,,,,,,,,,No,B,Multi-ply
1,Yuriy Kapitonov,Юрий Капитонов,M,1957-11-15,Masters 60-69,110,102.1,,,,,,180,185,-190,185,,,,,,,185,No,B,Multi-ply
1,Nikolay Emelyanov,Николай Емельянов,M,1979-08-30,Open,125,121.6,,,,,,340,360,375,375,,,,,,,375,No,B,Multi-ply
2,Sergey Lir,Сергей Лир,M,1991-09-25,Open,125,117.5,,,,,,360,370,-380,370,,,,,,,370,No,B,Multi-ply
3,Aleksandr Vorobyov,Александр Воробьёв,M,1972-02-11,Open,125,116.4,,,,,,270,-280,-280,270,,,,,,,270,No,B,Multi-ply
DQ,Oleg Shlepin,Олег Шлепин,M,1975-07-08,Open,125,117.8,,,,,,-275,-280,-280,,,,,,,,,No,B,Multi-ply
1,Aleksandr Vorobyov,Александр Воробьёв,M,1972-02-11,Masters 40-49,125,116.4,,,,,,270,-280,-280,270,,,,,,,270,No,B,Multi-ply
DQ,Oleg Shlepin,Олег Шлепин,M,1975-07-08,Masters 40-49,125,117.8,,,,,,-275,-280,-280,,,,,,,,,No,B,Multi-ply
1,Sergey Nakonechnyy,Сергей Наконечный,M,1986-11-04,Open,140,135.2,,,,,,-370,370,-410,370,,,,,,,370,No,B,Multi-ply
1,Anna Korolyova,Анна Королёва,F,1997-07-28,Disabled Juniors 20-23,44,37.85,,,,,,32.5,35,37.5,37.5,,,,,,,37.5,No,B,Raw
1,Margarita Talitsyna,Маргарита Талицына,F,1968-10-13,Disabled Masters 50-59,52,50,,,,,,50,52.5,-55,52.5,,,,,,,52.5,No,B,Raw
1,Liliya Novikova,Лилия Новикова,F,1964-08-20,Disabled Masters 50-59,75,70.75,,,,,,55,-57.5,-57.5,55,,,,,,,55,No,B,Raw
1,Taisya Zaytseva,Таисья Зайцева,F,1947-08-30,Disabled Masters 70-79,82.5,78.4,,,,,,50,-55,55,55,,,,,,,55,No,B,Raw
1,Marina Pugacheva,Марина Пугачева,F,1964-02-22,Disabled Masters 50-59,90,88.3,,,,,,60,62.5,65,65,,,,,,,65,No,B,Raw
1,Tatyana Maeva,Татьяна Маева,F,1958-07-05,Disabled Masters 60-69,90,87.8,,,,,,75,77.5,80,80,-82.5,,,,,,80,No,B,Raw
1,Evgeniy Kornilov,Евгений Корнилов,M,1993-03-14,Disabled Open,52,33.45,,,,,,80,87.5,-95,87.5,,,,,,,87.5,No,B,Raw
DQ,Dmitriy Mikhaylov,Дмитрий Михайлов,M,1997-10-17,Disabled Juniors 20-23,60,56.5,,,,,,-85,-85,-85,,,,,,,,,No,B,Raw
1,Evgeniy Kosarev,Евгений Косарев,M,1961-03-29,Disabled Masters 50-59,67.5,64.9,,,,,,90,95,100,100,,,,,,,100,No,B,Raw
1,Aleksey Belov,Алексей Белов,M,1975-12-30,Disabled Masters 40-49,75,69.9,,,,,,80,85,87.5,87.5,,,,,,,87.5,No,B,Raw
2,Aleksey Pachin,Алексей Пачин,M,1979-03-02,Disabled Masters 40-49,75,72.95,,,,,,70,75,80,80,,,,,,,80,No,B,Raw
1,Georgiy Gvozdev,Георгий Гвоздев,M,1959-04-26,Disabled Masters 50-59,82.5,81.5,,,,,,-110,112.5,115,115,,,,,,,115,No,B,Raw
1,Valentina Semenyuk,Валентина Семенюк,M,1952-05-20,Disabled Masters 60-69,82.5,82.5,,,,,,30,32.5,35,35,,,,,,,35,No,B,Raw
1,Vyacheslav Grunichev,Вячеслав Груничев,M,1939-06-27,Disabled Masters 70-79,82.5,80.35,,,,,,30,32.5,35,35,,,,,,,35,No,B,Raw
1,Ivan Puryshev,Иван Пурышев,M,1980-05-03,Disabled Open,100,97.35,,,,,,80,85,90,90,,,,,,,90,No,B,Raw
1,Oleg Aristov,Олег Аристов,M,1955-03-08,Disabled Masters 60-69,100,95,,,,,,110,115,-120,115,,,,,,,115,No,B,Raw
1,Vladimir Kuznetsov,Владимир Кузнецов,M,1945-03-04,Disabled Masters 70-79,100,97.25,,,,,,70,75,80,80,,,,,,,80,No,B,Raw
1,Irina Chizhova,Ирина Чижова,F,1993-03-14,Open,52,52,,,,,,,,,,,120,125,-130,125,,125,No,D,Raw
2,Lyudmila Grushina,Людмила Грушина,F,1988-12-15,Open,52,51.6,,,,,,,,,,,-95,95,-105,95,,95,No,D,Raw
1,Mariya Vertlyugina,Мария Вертлюгина,F,2002-06-08,Teen 14-16,56,55.6,,,,,,,,,,,95,-105,-105,95,,95,No,D,Raw
1,Valeriya Zdorova,Валерия Здорова,F,1993-07-04,Open,56,54.9,,,,,,,,,,,100,112.5,125,125,,125,No,D,Raw
1,Eseniya Komlyakova,Есения Комлякова,F,2001-02-22,Sub-Juniors 17-19,60,56.7,,,,,,,,,,,90,100,-115,100,,100,No,D,Raw
1,Yuliya Zamyatina,Юлия Замятина,F,1993-01-09,Open,60,59.5,,,,,,,,,,,100,115,-130,115,,115,No,D,Raw
1,Marina Kovalskaya,Марина Ковальская,F,2004-06-04,Teen 14-16,67.5,63.6,,,,,,,,,,,102.5,110,115,115,,115,No,D,Raw
1,Kristina Shubtsova,Кристина Шубцова,F,2001-09-02,Sub-Juniors 17-19,67.5,60.6,,,,,,,,,,,72.5,80,-87.5,80,,80,No,D,Raw
1,Ivan Lebedev,Иван Лебедев,M,2003-09-03,Teen 14-16,56,55.3,,,,,,,,,,,-80,80,90,90,,90,No,D,Raw
1,Aleksandr Skvortsov,Александр Скворцов,M,2004-01-16,Teen 14-16,60,59.5,,,,,,,,,,,165,-175,-175,165,,165,No,D,Raw
1,Vitaliy Shemyakin,Виталий Шемякин,M,2005-07-24,Youth,67.5,65.7,,,,,,,,,,,90,100,105,105,,105,No,D,Raw
1,Yakov Zhabarov,Яков Жабаров,M,1996-10-18,Juniors 20-23,67.5,65.4,,,,,,,,,,,-135,140,-145,140,,140,No,D,Raw
1,Aldair Aliev,Альдаир Алиев,M,1992-12-06,Open,67.5,66.9,,,,,,,,,,,212.5,217.5,-222.5,217.5,,217.5,No,D,Raw
2,Evgeniy Bayborodin,Евгений Байбородин,M,1987-01-23,Open,67.5,65.8,,,,,,,,,,,-195,-195,195,195,,195,No,D,Raw
1,Ilya Kibikin,Илья Кибикин,M,1994-03-11,Open,75,74.7,,,,,,,,,,,195,207.5,212.5,212.5,,212.5,No,D,Raw
2,Daniil Smirnov,Даниил Смирнов,M,1990-12-15,Open,75,72.7,,,,,,,,,,,182.5,185,190,190,,190,No,D,Raw
3,Maksim Stupin,Максим Ступин,M,1988-03-22,Open,75,73.2,,,,,,,,,,,182.5,-187.5,-187.5,182.5,,182.5,No,D,Raw
1,Mark Zakharenko,Марк Захаренко,M,1998-05-17,Juniors 20-23,82.5,79.7,,,,,,,,,,,190,205,220,220,,220,No,D,Raw
1,Igor Pashkov,Игорь Пашков,M,1986-06-10,Open,82.5,81.4,,,,,,,,,,,250,260,-265,260,,260,No,D,Raw
2,Ilya Vasilev,Илья Васильев,M,1982-12-15,Open,82.5,81.8,,,,,,,,,,,200,220,250,250,,250,No,D,Raw
1,Nikolay Sytenskikh,Николай Сытенских,M,1974-05-27,Masters 40-49,82.5,79.8,,,,,,,,,,,140,-160,-170,140,,140,No,D,Raw
1,Nikita Yuskov,Никита Юсков,M,1993-01-08,Open,90,88.3,,,,,,,,,,,-230,230,240,240,,240,No,D,Raw
2,Yuriy Ryabinin,Юрий Рябинин,M,1980-08-03,Open,90,84.7,,,,,,,,,,,200,210,-215,210,,210,No,D,Raw
1,Vadim Fedyukov,Вадим Федюков,M,1976-03-14,Masters 40-49,90,89.8,,,,,,,,,,,210,220,-225,220,,220,No,D,Raw
1,Vladimir Plonin,Владимир Плонин,M,1996-06-04,Juniors 20-23,100,94.8,,,,,,,,,,,225,-240,240,240,,240,No,D,Raw
2,Aleksey Kosyanov,Алексей Косьянов,M,1998-02-10,Juniors 20-23,100,99.4,,,,,,,,,,,220,232.5,-240,232.5,,232.5,No,D,Raw
1,Andrey Privizentsev,Андрей Привизенцев,M,1988-08-08,Open,100,96.9,,,,,,,,,,,240,250,255,255,,255,No,D,Raw
2,Artyom Klopov,Артём Клопов,M,1990-10-11,Open,100,98.7,,,,,,,,,,,220,-230,,220,,220,No,D,Raw
3,Aleksandr Gorlov,Александр Горлов,M,1980-11-25,Open,100,97.2,,,,,,,,,,,215,-232.5,-232.5,215,,215,No,D,Raw
4,Yuriy Murin,Юрий Мурин,M,1989-12-06,Open,100,98.2,,,,,,,,,,,180,200,210,210,,210,No,D,Raw
1,Pavel Bondarev,Павел Бондарев,M,1988-06-10,Open,110,107.3,,,,,,,,,,,-260,272.5,-282.5,272.5,,272.5,No,D,Raw
2,Valeriy Lobach,Валерий Лобач,M,1988-07-05,Open,110,105.5,,,,,,,,,,,215,225,-235,225,,225,No,D,Raw
1,Sergey Ptichkin,Сергей Птичкин,M,1976-06-08,Masters 40-49,110,105.9,,,,,,,,,,,230,245,-250,245,,245,No,D,Raw
1,Anna Korolyova,Анна Королёва,F,1997-07-28,Juniors 20-23,44,37.85,,,,,,,,,,,45,50,55,55,,55,No,D,Raw
1,Anna Doronina,Анна Доронина,F,1979-06-26,Open,52,52,,,,,,,,,,,95,100,110,110,,110,No,D,Raw
1,Mariya Aleksandrova,Мария Александрова,F,1981-06-14,Open,67.5,66.6,,,,,,,,,,,160,170,-175,170,,170,No,D,Raw
1,Yan Lennok,Ян Леннок,M,2001-06-08,Sub-Juniors 17-19,75,72.4,,,,,,,,,,,-210,210,-220,210,,210,No,D,Raw
1,Maksim Stupin,Максим Ступин,M,1988-03-22,Open,75,73.2,,,,,,,,,,,182.5,-187.5,-187.5,182.5,,182.5,No,D,Raw
DQ,Aleksandr Dyachkov,Александр Дьячков,M,1988-07-20,Open,75,73.5,,,,,,,,,,,-200,-200,-200,,,,No,D,Raw
1,Aleksandr Ilenko,Александр Ильенко,M,1996-03-23,Juniors 20-23,82.5,80.8,,,,,,,,,,,287.5,-300,-300,287.5,,287.5,No,D,Raw
1,Igor Pashkov,Игорь Пашков,M,1986-06-10,Open,82.5,81.4,,,,,,,,,,,250,260,-265,260,,260,No,D,Raw
1,Ivan Dmitriev,Иван Дмитриев,M,1970-06-11,Open,90,88.9,,,,,,,,,,,300,310,-320,310,,310,No,D,Raw
2,Sergey Surkov,Сергей Сурков,M,1985-10-14,Open,90,89.9,,,,,,,,,,,280,290,-300,290,,290,No,D,Raw
3,Roman Malyshev,Роман Малышев,M,1978-08-20,Open,90,89.9,,,,,,,,,,,240,250,-255,250,,250,No,D,Raw
1,Ivan Dmitriev,Иван Дмитриев,M,1970-06-11,Masters 40-49,90,88.9,,,,,,,,,,,300,310,-320,310,,310,No,D,Raw
2,Vadim Fedyukov,Вадим Федюков,M,1976-03-14,Masters 40-49,90,89.8,,,,,,,,,,,210,220,-225,220,,220,No,D,Raw
1,Dmitriy Pavlov,Дмитрий Павлов,M,1996-06-11,Juniors 20-23,100,99,,,,,,,,,,,302.5,310,320,320,,320,No,D,Raw
1,Dmitriy Pavlov,Дмитрий Павлов,M,1996-06-11,Open,100,99,,,,,,,,,,,302.5,310,320,320,,320,No,D,Raw
2,Dmitriy Makarov,Дмитрий Макаров,M,1984-05-25,Open,100,98.8,,,,,,,,,,,277.5,292.5,302.5,302.5,,302.5,No,D,Raw
3,Aleksandr Rzhanovskiy,Александр Ржановский,M,1994-03-30,Open,100,97.3,,,,,,,,,,,275,290,-300,290,,290,No,D,Raw
4,Dmitriy Berezhnoy,Дмитрий Бережной,M,1985-06-21,Open,100,98.1,,,,,,,,,,,260,272.5,,272.5,,272.5,No,D,Raw
5,Sergey Moiseev,Сергей Моисеев,M,1977-08-24,Open,100,99.9,,,,,,,,,,,260,-272.5,-272.5,260,,260,No,D,Raw
6,Anton Prokopenko,Антон Прокопенко,M,1983-02-18,Open,100,95.5,,,,,,,,,,,200,-210,-212.5,200,,200,No,D,Raw
1,Sergey Moiseev,Сергей Моисеев,M,1977-08-24,Masters 40-49,100,99.9,,,,,,,,,,,260,-272.5,-272.5,260,,260,No,D,Raw
1,Oleg Vinogradov,Олег Виноградов,M,1990-06-09,Open,110,103.9,,,,,,,,,,,320,340,350,350,,350,No,D,Raw
2,Aleksandr Vasev,Александр Васев,M,1991-04-26,Open,110,104.7,,,,,,,,,,,350,-370,-370,350,,350,No,D,Raw
1,Aleksey Kokurin,Алексей Кокурин,M,1995-05-13,Juniors 20-23,125,116,,,,,,,,,,,215,225,-237.5,225,,225,No,D,Raw
1,Viktor Kapralov,Виктор Капралов,M,1981-09-30,Open,125,112.6,,,,,,,,,,,250,260,-270,260,,260,No,D,Raw
