Name,WeightClassKg,Division,Sex,Best3SquatKg,Best3BenchKg,Best3DeadliftKg,TotalKg,Event,Equipment,Place
Kristine Blauvelt,48,Open,M,61.24,43.09,90.72,195.04,SBD,Single-ply,1
M. Edmonds,48,Open,M,47.63,29.48,81.65,158.76,SBD,Single-ply,2
Patricia Hutchins,60,Open,M,81.65,43.09,81.65,206.38,SBD,Single-ply,1
Juli Gould,82.5,Open,M,142.88,79.38,140.61,362.87,SBD,Single-ply,1
